{
  "name": "scheduleJob",
  "properties": {
    "name": {
      "type": "string"
    },
    "spec": {
      "type": "string"
    },
    "status": {
      "type": "string"
    },
    "createdAt": {
      "type": "date"
    }
  },
  "hidden": ["job"]
}
